0.0 0.0
0.0 0.0
0.2 0.2
0.396 0.196
0.58808 0.19208
0.7763184 0.1882384
0.960792032 0.184473632
1.14157619136 0.18078415936
1.31874466753 0.177168476173
1.49236977418 0.173625106649
1.6625223787 0.170152604516
1.82927193112 0.166749552426
1.9926864925 0.163414561378
2.15283276265 0.16014627015
2.3097761074 0.156943344747
2.46358058525 0.153804477852
2.61430897355 0.150728388295
2.76202279408 0.147713820529
2.90678233819 0.144759544119
3.04864669143 0.141864353236
3.1876737576 0.139027066171
3.32392028245 0.136246524848
3.4574418768 0.133521594351
3.58829303926 0.130851162464
3.71652717848 0.128234139215
3.84219663491 0.12566945643
3.96535270221 0.123156067302
4.08604564817 0.120692945956
4.2043247352 0.118279087037
4.3202382405 0.115913505296
4.43383347569 0.11359523519
4.54515680618 0.111323330486
4.65425367005 0.109096863876
4.76116859665 0.106914926599
4.86594522472 0.104776628067
4.96862632022 0.102681095506
5.06925379382 0.100627473596
5.16786871794 0.0986149241236
5.06451134358 -0.103357374359
4.96322111671 -0.101290226872
4.86395669438 -0.0992644223342
4.76667756049 -0.0972791338876
4.67134400928 -0.0953335512098
4.5779171291 -0.0934268801856
4.48635878651 -0.0915583425819
4.39663161078 -0.0897271757303
4.30869897857 -0.0879326322157
4.222524999 -0.0861739795713
4.13807449902 -0.0844504999799
4.05531300904 -0.0827614899803
3.97420674885 -0.0811062601807
3.89472261388 -0.0794841349771
3.8168281616 -0.0778944522776
3.74049159837 -0.076336563232
3.6656817664 -0.0748098319674
3.59236813107 -0.073313635328
3.52052076845 -0.0718473626215
3.45011035308 -0.070410415369
3.38110814602 -0.0690022070616
3.3134859831 -0.0676221629204
3.24721626344 -0.066269719662
3.18227193817 -0.0649443252688
3.11862649941 -0.0636454387634
3.05625396942 -0.0623725299881
2.99512889003 -0.0611250793884
2.93522631223 -0.0599025778006
2.87652178598 -0.0587045262446
2.81899135026 -0.0575304357197
2.76261152326 -0.0563798270053
2.70735929279 -0.0552522304652
2.65321210694 -0.0541471858559
2.6001478648 -0.0530642421388
2.5481449075 -0.052002957296
2.49718200935 -0.0509628981501
2.44723836917 -0.0499436401871
2.39829360178 -0.0489447673833
2.35032772975 -0.0479658720357
2.30332117515 -0.047006554595
2.25725475165 -0.0460664235031
2.21210965662 -0.045145095033
2.16786746348 -0.0442421931323
2.12451011421 -0.0433573492697
2.08201991193 -0.0424902022843
2.04037951369 -0.0416403982386
1.99957192342 -0.0408075902738
1.95958048495 -0.0399914384684
1.92038887525 -0.039191609699
1.88198109775 -0.038407777505
1.84434147579 -0.0376396219549
1.80745464627 -0.0368868295158
1.77130555335 -0.0361490929255
1.73587944228 -0.035426111067
1.70116185344 -0.0347175888456
1.66713861637 -0.0340232370687
1.63379584404 -0.0333427723274
1.60111992716 -0.0326759168808
1.56909752862 -0.0320223985432
1.53771557804 -0.0313819505723
1.50696126648 -0.0307543115609
1.47682204115 -0.0301392253297
1.44728560033 -0.0295364408231
1.41833988832 -0.0289457120066
1.38997309056 -0.0283667977665
1.36217362875 -0.0277994618111
1.33493015617 -0.0272434725749
1.30823155305 -0.0266986031234
1.28206692199 -0.026164631061
1.25642558355 -0.0256413384397
1.23129707188 -0.0251285116709
1.20667113044 -0.0246259414375
1.18253770783 -0.0241334226088
1.15888695367 -0.0236507541566
1.1357092146 -0.0231777390735
1.11299503031 -0.022714184292
1.0907351297 -0.0222599006062
1.06892042711 -0.021814702594
1.04754201857 -0.0213784085422
1.02659117819 -0.0209508403713
1.00605935463 -0.0205318235639
0.985938167538 -0.0201211870926
0.966219404187 -0.0197187633508
0.946895016103 -0.0193243880837
0.927957115781 -0.0189379003221
0.909397973466 -0.0185591423156
0.891210013996 -0.0181879594693
0.873385813716 -0.0178242002799
0.855918097442 -0.0174677162743
0.838799735493 -0.0171183619488
0.822023740783 -0.0167759947099
0.805583265968 -0.0164404748157
0.789471600648 -0.0161116653194
0.773682168635 -0.015789432013
0.758208525263 -0.0154736433727
0.743044354757 -0.0151641705053
0.728183467662 -0.0148608870951
0.713619798309 -0.0145636693532
0.699347402343 -0.0142723959662
0.685360454296 -0.0139869480469
0.67165324521 -0.0137072090859
0.658220180306 -0.0134330649042
0.6450557767 -0.0131644036061
0.632154661166 -0.012901115534
0.619511567942 -0.0126430932233
0.607121336584 -0.0123902313588
0.594978909852 -0.0121424267317
0.583079331655 -0.011899578197
0.571417745022 -0.0116615866331
0.559989390121 -0.0114283549004
0.548789602319 -0.0111997878024
0.537813810273 -0.0109757920464
0.527057534067 -0.0107562762054
0.516516383386 -0.0105411506813
0.506186055718 -0.0103303276677
0.496062334604 -0.0101237211144
0.486141087912 -0.00992124669207
0.476418266153 -0.00972282175823
0.46688990083 -0.00952836532306
0.457552102814 -0.00933779801661
0.448401060757 -0.00915104205627
0.439433039542 -0.00896802121515
0.430644378751 -0.00878866079085
0.422031491176 -0.00861288757503
0.413590861353 -0.00844062982353
0.405319044126 -0.00827181722706
0.397212663243 -0.00810638088252
0.389268409978 -0.00794425326486
0.381483041779 -0.00778536819957
0.373853380943 -0.00762966083558
0.366376313324 -0.00747706761886
0.359048787058 -0.00732752626649
0.351867811317 -0.00718097574116
0.34483045509 -0.00703735622633
0.337933845989 -0.00689660910181
0.331175169069 -0.00675867691977
0.324551665687 -0.00662350338138
0.318060632374 -0.00649103331375
0.311699419726 -0.00636121264747
0.305465431332 -0.00623398839453
0.299356122705 -0.00610930862663
0.293369000251 -0.0059871224541
0.287501620246 -0.00586738000502
0.281751587841 -0.00575003240492
0.276116556084 -0.00563503175682
0.270594224963 -0.00552233112169
0.265182340463 -0.00541188449925
0.259878693654 -0.00530364680927
0.254681119781 -0.00519757387308
0.249587497385 -0.00509362239562
0.244595747438 -0.00499174994771
0.239703832489 -0.00489191494875
0.234909755839 -0.00479407664978
0.230211560722 -0.00469819511678
0.225607329508 -0.00460423121444
0.221095182918 -0.00451214659016
0.216673279259 -0.00442190365835
0.212339813674 -0.00433346558518
0.208093017401 -0.00424679627348
0.203931157053 -0.00416186034801
0.199852533912 -0.00407862314106
0.195855483233 -0.00399705067823
0.191938373569 -0.00391710966467
0.188099606097 -0.00383876747137
0.184337613975 -0.00376199212195
0.180650861696 -0.00368675227951
0.177037844462 -0.00361301723392
0.173497087573 -0.00354075688924
0.170027145821 -0.00346994175145
0.166626602905 -0.00340054291642
0.163294070847 -0.0033325320581
0.16002818943 -0.00326588141693
0.156827625641 -0.0032005637886
0.153691073128 -0.00313655251283
0.150617251666 -0.00307382146256
0.147604906633 -0.00301234503332
0.1446528085 -0.00295209813265
0.14175975233 -0.00289305617
0.138924557283 -0.0028351950466
0.136146066138 -0.00277849114566
0.133423144815 -0.00272292132275
0.130754681919 -0.0026684628963
0.12813958828 -0.00261509363838
0.125576796515 -0.00256279176561
0.123065260584 -0.00251153593029
0.120603955373 -0.00246130521168
0.118191876265 -0.00241207910746
0.11582803874 -0.0023638375253
0.113511477965 -0.00231656077479
0.111241248406 -0.0022702295593
0.109016423438 -0.00222482496812
0.106836094969 -0.00218032846875
0.10469937307 -0.00213672189938
0.102605385608 -0.00209398746139
0.100553277896 -0.00205210771216
0.098542212338 -0.00201106555792
0.0965713680913 -0.00197084424676
0.0946399407294 -0.00193142736182
0.0927471419149 -0.00189279881459
0.0908921990766 -0.0018549428383
0.089074355095 -0.00181784398153
0.0872928679931 -0.0017814871019
0.0855470106333 -0.00174585735986
0.0838360704206 -0.00171094021267
0.0821593490122 -0.00167672140841
0.0805161620319 -0.00164318698025
0.0789058387913 -0.00161032324064
0.0773277220155 -0.00157811677582
0.0757811675752 -0.00154655444031
0.0742655442237 -0.0015156233515
0.0727802333392 -0.00148531088448
0.0713246286724 -0.00145560466678
0.069898136099 -0.00142649257345
0.068500173377 -0.00139796272197
0.0671301699094 -0.00137000346754
0.0657875665113 -0.00134260339819
0.064471815181 -0.00131575133022
0.0631823788774 -0.00128943630362
0.0619187312999 -0.00126364757755
0.0606803566739 -0.00123837462599
0.0594667495404 -0.00121360713348
0.0582774145496 -0.0011893349908
0.0571118662586 -0.00116554829099
0.0559696289334 -0.00114223732518
0.0548502363547 -0.00111939257867
0.0537532316277 -0.00109700472709
0.0526781669951 -0.00107506463256
0.0516246036552 -0.0010535633399
0.0505921115821 -0.0010324920731
0.0495802693505 -0.00101184223164
0.0485886639634 -0.000991605387007
0.0476168906842 -0.000971773279275
0.0466645528705 -0.000952337813679
0.0457312618131 -0.000933291057407
0.0448166365768 -0.000914625236263
0.0439203038453 -0.000896332731536
0.0430418977684 -0.000878406076907
0.042181059813 -0.000860837955372
0.0413374386167 -0.00084362119626
0.0405106898444 -0.000826748772333
0.0397004760475 -0.000810213796889
0.0389064665266 -0.000794009520945
0.038128337196 -0.000778129330534
0.0373657704521 -0.000762566743923
0.0366184550431 -0.000747315409043
0.0358860859422 -0.000732369100859
0.0351683642234 -0.000717721718843
0.0344649969389 -0.000703367284466
0.0337756970001 -0.000689299938784
0.0331001830601 -0.000675513940003
0.0324381793989 -0.000662003661198
0.0317894158109 -0.000648763587982
0.0311536274947 -0.000635788316217
0.0305305549448 -0.000623072549892
0.0299199438459 -0.000610611098899
0.029321544969 -0.000598398876917
0.0287351140696 -0.000586430899382
0.0281604117882 -0.000574702281391
0.0275972035525 -0.000563208235768
0.0270452594814 -0.000551944071049
0.0265043542918 -0.000540905189624
0.025974267206 -0.000530087085842
0.0254547818618 -0.000519485344114
0.0249456862246 -0.000509095637241
0.0244467725001 -0.000498913724492
0.0239578370501 -0.000488935450001
0.0234786803091 -0.000479156741001
0.0230091067029 -0.000469573606182
0.0225489245689 -0.000460182134063
0.0220979460775 -0.000450978491372
0.0216559871559 -0.000441958921549
0.0212228674128 -0.000433119743121
0.0207984100646 -0.000424457348259
0.0203824418633 -0.000415968201288
0.019974793026 -0.000407648837268
0.0195752971655 -0.00039949586052
0.0191837912222 -0.000391505943306
0.0188001153977 -0.000383675824445
0.0184241130898 -0.000376002307959
0.018055630828 -0.000368482261791
0.0176945182114 -0.000361112616559
0.0173406278472 -0.000353890364231
0.0169938152903 -0.000346812556941
0.0166539389844 -0.000339876305809
0.0163208602048 -0.00033307877969
0.0159944430007 -0.000326417204093
0.0156745541407 -0.000319888860012
0.0153610630578 -0.000313491082814
0.0150538417967 -0.00030722126116
0.0147527649607 -0.000301076835932
0.0144577096615 -0.000295055299212
0.0141685554683 -0.000289154193233
0.0138851843589 -0.000283371109369
0.0136074806718 -0.000277703687175
0.0133353310583 -0.000272149613437
0.0130686244372 -0.000266706621169
0.0128072519484 -0.000261372488744
0.0125511069094 -0.000256145038968
0.0123000847713 -0.000251022138187
0.0120540830758 -0.000246001695423
0.0118130014143 -0.000241081661521
0.011576741386 -0.000236260028281
0.0113452065583 -0.000231534827719
0.0111183024271 -0.000226904131168
0.0108959363786 -0.000222366048547
0.010678017651 -0.000217918727571
0.010464457298 -0.000213560353018
0.010255168152 -0.000209289145964
0.010050064789 -0.000205103363037
0.00984906349323 -0.000201001295778
0.00965208222336 -0.000196981269866
0.0094590405789 -0.000193041644465
0.00926985976731 -0.000189180811581
0.00908446257197 -0.000185397195345
0.00890277332053 -0.000181689251441
0.00872471785412 -0.000178055466407
0.00855022349704 -0.000174494357083
0.0083792190271 -0.000171004469941
0.00821163464656 -0.000167584380542
0.00804740195363 -0.000164232692931
0.00788645391455 -0.000160948039074
0.00772872483626 -0.000157729078289
0.00757415033954 -0.000154574496726
0.00742266733274 -0.000151483006796
0.00727421398609 -0.000148453346654
0.00712872970637 -0.00014548427972
0.00698615511224 -0.000142574594129
0.00684643200999 -0.000139723102244
0.0067095033698 -0.000136928640195
0.0065753133024 -0.000134190067399
0.00644380703635 -0.000131506266051
0.00631493089563 -0.000128876140721
0.00618863227771 -0.000126298617914
0.00606485963215 -0.000123772645559
0.00594356243951 -0.000121297192642
0.00582469119072 -0.000118871248787
0.00570819736691 -0.000116493823818
0.00559403341957 -0.000114163947337
0.00548215275118 -0.000111880668392
0.00537250969616 -0.000109643055019
0.00526505950224 -0.000107450193923
0.00515975831219 -0.000105301190047
0.00505656314594 -0.000103195166247
0.00495543188303 -0.000101131262916
0.00485632324536 -9.91086376629e-05
0.00475919678045 -9.71264649081e-05
0.00466401284485 -9.51839356063e-05
0.00457073258795 -9.32802568983e-05
0.00447931793619 -9.14146517559e-05
0.00438973157747 -8.9586358726e-05
0.00430193694592 -8.7794631547e-05
0.004215898207 -8.6038738921e-05
0.00413158024286 -8.43179641379e-05
0.004048948638 -8.26316048617e-05
0.00396796966525 -8.09789727541e-05
0.00388861027194 -7.93593933111e-05
0.0038108380665 -7.77722054366e-05
0.00373462130517 -7.62167613289e-05
0.00365992887907 -7.46924261037e-05
0.00358673030149 -7.31985775815e-05
0.00351499569545 -7.17346060313e-05
0.00344469578155 -7.02999139079e-05
0.00337580186591 -6.88939156319e-05
0.0033082858286 -6.75160373191e-05
0.00324212011203 -6.61657165679e-05
0.00317727770978 -6.48424022458e-05
0.00311373215559 -6.35455541911e-05
0.00305145751248 -6.22746431134e-05
0.00299042836222 -6.10291502525e-05
0.00293061979498 -5.98085672436e-05
0.00287200739908 -5.86123958968e-05
0.0028145672511 -5.74401479838e-05
0.00275827590608 -5.62913450182e-05
0.00270311038796 -5.51655181269e-05
0.0026490481802 -5.40622077594e-05
0.00259606721659 -5.29809636021e-05
0.00254414587226 -5.19213443297e-05
0.00249326295481 -5.08829174493e-05
0.00244339769572 -4.98652590935e-05
0.00239452974181 -4.88679539146e-05
0.00234663914697 -4.78905948356e-05
0.00229970636403 -4.69327829364e-05
0.00225371223675 -4.59941272837e-05
0.00220863799201 -4.50742447384e-05
0.00216446523218 -4.41727598357e-05
0.00212117592753 -4.32893046423e-05
0.00207875240898 -4.24235185505e-05
0.0020371773608 -4.15750481793e-05
0.00199643381359 -4.07435472169e-05
0.00195650513731 -3.99286762729e-05
0.00191737503457 -3.91301027491e-05
0.00187902753387 -3.83475006913e-05
0.0018414469832 -3.75805506749e-05
0.00180461804354 -3.68289396633e-05
0.00176852568266 -3.60923608724e-05
0.00173315516901 -3.53705136504e-05
0.00169849206563 -3.4663103385e-05
0.00166452222432 -3.39698413114e-05
0.00163123177983 -3.32904444846e-05
0.00159860714424 -3.26246355939e-05
0.00156663500135 -3.19721428852e-05
0.00153530230132 -3.13327000327e-05
0.00150459625529 -3.07060460258e-05
0.00147450433019 -3.00919251046e-05
0.00144501424359 -2.94900866038e-05
0.00141611395872 -2.89002848675e-05
0.00138779167954 -2.83222791779e-05
0.00136003584595 -2.77558335924e-05
0.00133283512903 -2.72007169144e-05
0.00130617842645 -2.66567025804e-05
0.00128005485792 -2.61235685315e-05
0.00125445376077 -2.56010971569e-05
0.00122936468555 -2.50890752156e-05
0.00120477739183 -2.45872937157e-05
0.001180681844 -2.40955478361e-05
0.00115706820712 -2.3613636877e-05
0.00113392684298 -2.31413641458e-05
0.00111124830612 -2.26785368582e-05
0.00108902333999 -2.22249661235e-05
0.0010672428732 -2.17804667955e-05
0.00104589801573 -2.13448574655e-05
0.00102498005542 -2.09179603132e-05
0.00100448045431 -2.04996011135e-05
0.000984390845225 -2.00896090803e-05
0.000964703028316 -1.96878169092e-05
0.000945408967752 -1.92940605643e-05
0.000926500788395 -1.89081793565e-05
0.00090797077263 -1.85300157654e-05
0.000889811357176 -1.8159415454e-05
0.000872015130035 -1.77962271408e-05
0.000854574827436 -1.74403025994e-05
0.000837483330884 -1.70914965523e-05
0.000820733664263 -1.67496666208e-05
0.00080431899098 -1.64146732828e-05
0.000788232611164 -1.60863798158e-05
0.000772467958939 -1.57646522254e-05
0.000757018599757 -1.54493591822e-05
0.000741878227764 -1.51403719926e-05
0.000727040663207 -1.48375645566e-05
0.000712499849946 -1.4540813261e-05
0.000698249852945 -1.42499970011e-05
0.000684284855886 -1.39649970592e-05
0.000670599158767 -1.36856971196e-05
0.000657187175591 -1.34119831756e-05
0.000644043432082 -1.31437435087e-05
0.000631162563437 -1.28808686455e-05
0.000618539312171 -1.26232512656e-05
0.000606168525927 -1.23707862443e-05
0.00059404515541 -1.21233705173e-05
0.0005821642523 -1.18809031093e-05
0.000570520967258 -1.16432850419e-05
0.000559110547911 -1.14104193472e-05
0.00054792833695 -1.11822109616e-05
0.000536969770209 -1.09585667403e-05
0.00052623037481 -1.07393953996e-05
0.000515705767313 -1.05246074966e-05
0.000505391651963 -1.03141153502e-05
0.000495283818928 -1.01078330346e-05
0.00048537814255 -9.90567637871e-06
0.000475670579696 -9.70756285312e-06
0.000466157168105 -9.51341159094e-06
0.000456834024739 -9.32314336666e-06
0.000447697344249 -9.13668048952e-06
0.00043874339736 -8.95394688882e-06
0.000429968529417 -8.77486794337e-06
0.000421369158829 -8.59937058806e-06
0.00041294177565 -8.42738317886e-06
0.000404682940136 -8.25883551414e-06
0.000396589281337 -8.09365879917e-06
0.000388657495705 -7.93178563185e-06
0.000380884345795 -7.77314991041e-06
0.000373266658876 -7.61768691859e-06
0.0003658013257 -7.46533317653e-06
0.000358485299188 -7.31602651172e-06
0.0003513155932 -7.16970598802e-06
0.000344289281337 -7.026311863e-06
0.000337403495713 -6.88578562347e-06
0.000330655425799 -6.74806991441e-06
0.000324042317281 -6.61310851768e-06
0.000317561470936 -6.48084634491e-06
0.000311210241513 -6.35122942327e-06
0.000304986036689 -6.22420482443e-06
0.000298886315953 -6.09972073562e-06
0.000292908589635 -5.9777263175e-06
0.000287050417839 -5.85817179655e-06
0.00028130940948 -5.74100835848e-06
0.000275683221297 -5.62618818378e-06
0.00027016955687 -5.51366442636e-06
0.000264766165728 -5.40339114252e-06
0.000259470842416 -5.29532331228e-06
0.000254281425569 -5.18941684646e-06
0.000249195797053 -5.08562851564e-06
0.000244211881117 -4.98391593595e-06
0.000239327643492 -4.8842376259e-06
0.00023454109062 -4.78655287139e-06
0.000229850268809 -4.69082181098e-06
0.000225253263437 -4.59700537192e-06
0.000220748198167 -4.50506527017e-06
0.000216333234199 -4.41496396775e-06
0.000212006569519 -4.32666467987e-06
0.00020776643813 -4.24013138911e-06
0.000203611109363 -4.1553287673e-06
0.00019953888718 -4.07222218257e-06
0.000195548109431 -3.99077774915e-06
0.000191637147246 -3.91096218522e-06
0.000187804404298 -3.83274294791e-06
0.000184048316214 -3.75608808412e-06
0.000180367349891 -3.68096632286e-06
0.000176760002894 -3.60734699711e-06
0.000173224802836 -3.53520005802e-06
0.000169760306775 -3.4644960607e-06
0.00016636510064 -3.39520613579e-06
0.000163037798629 -3.3273020108e-06
0.000159777042654 -3.26075597457e-06
0.000156581501805 -3.19554084882e-06
0.000153449871767 -3.13163003796e-06
0.000150380874331 -3.06899743663e-06
0.000147373256844 -3.00761748662e-06
0.00014442579171 -2.94746513418e-06
0.000141537275873 -2.88851583718e-06
0.000138706530358 -2.83074551533e-06
0.000135932399751 -2.77413060701e-06
0.000133213751752 -2.71864799828e-06
0.000130549476722 -2.66427502993e-06
0.000127938487189 -2.61098953303e-06
0.000125379717446 -2.55876974364e-06
0.000122872123093 -2.50759435261e-06
0.00012041468063 -2.45744246286e-06
0.000118006387019 -2.40829361076e-06
0.000115646259282 -2.36012773769e-06
0.000113333334092 -2.31292519004e-06
0.000111066667408 -2.26666668368e-06
0.000108845334061 -2.2213333466e-06
0.000106668427378 -2.17690668336e-06
0.000104535058831 -2.13336854671e-06
0.000102444357658 -2.09070117307e-06
0.000100395470504 -2.04888715416e-06
9.83875610956e-05 -2.00790940852e-06
9.64198098714e-05 -1.96775122419e-06
9.44914136767e-05 -1.92839619473e-06
9.26015854006e-05 -1.88982827609e-06
9.07495536921e-05 -1.85203170844e-06
8.89345626192e-05 -1.81499107299e-06
8.71558713698e-05 -1.7786912494e-06
8.54127539398e-05 -1.74311742995e-06
8.37044988629e-05 -1.70825507695e-06
8.20304088833e-05 -1.67408997953e-06
8.03898007078e-05 -1.64060817553e-06
7.87820046924e-05 -1.60779601543e-06
7.72063646011e-05 -1.57564009129e-06
7.56622373075e-05 -1.54412729358e-06
7.41489925602e-05 -1.51324474729e-06
7.26660127057e-05 -1.48297985447e-06
7.1212692454e-05 -1.4533202517e-06
6.97884386085e-05 -1.42425384553e-06
6.83926698315e-05 -1.395768777e-06
6.70248164383e-05 -1.36785339322e-06
6.56843201057e-05 -1.3404963326e-06
6.43706337087e-05 -1.313686397e-06
6.30832210291e-05 -1.28741267957e-06
6.18215566135e-05 -1.26166441561e-06
6.05851254818e-05 -1.2364311317e-06
5.9373422971e-05 -1.21170251077e-06
5.81859545079e-05 -1.18746846312e-06
5.7022235417e-05 -1.16371909087e-06
5.58817907077e-05 -1.14044470934e-06
5.47641548962e-05 -1.11763581145e-06
5.36688718e-05 -1.09528309622e-06
5.25954943598e-05 -1.07337744026e-06
5.15435844761e-05 -1.05190988364e-06
5.05127127894e-05 -1.03087168668e-06
4.95024585305e-05 -1.01025425892e-06
4.85124093572e-05 -9.90049173311e-07
4.75421611696e-05 -9.70248187571e-07
4.65913179468e-05 -9.50843222824e-07
4.56594915903e-05 -9.31826356521e-07
4.47463017608e-05 -9.13189829532e-07
4.38513757217e-05 -8.94926039052e-07
4.29743482115e-05 -8.77027510171e-07
4.21148612446e-05 -8.59486966931e-07
4.12725640189e-05 -8.42297225745e-07
4.04471127382e-05 -8.25451280662e-07
3.96381704846e-05 -8.08942253627e-07
3.88454070759e-05 -7.92763408697e-07
3.8068498931e-05 -7.76908144928e-07
3.73071289559e-05 -7.61369975066e-07
3.65609863735e-05 -7.46142582386e-07
3.58297666452e-05 -7.31219728323e-07
3.51131713145e-05 -7.1659533063e-07
3.44109078867e-05 -7.02263427854e-07
3.37226897287e-05 -6.88218158018e-07
3.30482359345e-05 -6.74453794147e-07
3.23872712187e-05 -6.60964715848e-07
3.17395257952e-05 -6.47745423521e-07
3.11047352781e-05 -6.3479051704e-07
3.04826405753e-05 -6.22094702862e-07
2.98729877599e-05 -6.09652815342e-07
2.92755280071e-05 -5.97459752782e-07
2.86900174444e-05 -5.85510562701e-07
2.8116217095e-05 -5.73800349457e-07
2.75538927568e-05 -5.62324338205e-07
2.70028148961e-05 -5.51077860678e-07
2.64627586049e-05 -5.40056291243e-07
2.59335034301e-05 -5.29255174797e-07
2.54148333596e-05 -5.18670070448e-07
2.49065366944e-05 -5.08296665203e-07
2.44084059631e-05 -4.9813073133e-07
2.39202378438e-05 -4.88168119261e-07
2.34418330862e-05 -4.78404757587e-07
2.2972996419e-05 -4.68836667267e-07
2.25135364929e-05 -4.59459926105e-07
2.20632657602e-05 -4.50270732699e-07
2.16220004461e-05 -4.41265314066e-07
2.11895604423e-05 -4.32440003806e-07
2.07657692286e-05 -4.23791213677e-07
2.03504538447e-05 -4.15315383862e-07
1.99434447694e-05 -4.07009075332e-07
1.95445758706e-05 -3.98868898799e-07
1.91536843559e-05 -3.90891514712e-07
1.87706106658e-05 -3.83073690102e-07
1.83951984525e-05 -3.75412213316e-07
1.80272944874e-05 -3.67903965071e-07
1.76667485974e-05 -3.60545890032e-07
1.73134136219e-05 -3.533349755e-07
1.69671453492e-05 -3.46268272722e-07
1.66278024452e-05 -3.39342903999e-07
1.62952463967e-05 -3.32556048477e-07
1.59693414687e-05 -3.25904927934e-07
1.56499546407e-05 -3.19386828096e-07
1.53369555491e-05 -3.12999091534e-07
1.50302164386e-05 -3.06739110556e-07
1.47296121042e-05 -3.00604334313e-07
1.44350198639e-05 -2.9459224038e-07
1.41463194652e-05 -2.88700398698e-07
1.38633930789e-05 -2.82926386319e-07
1.35861252133e-05 -2.77267865556e-07
1.33144027146e-05 -2.71722498724e-07
1.30481146599e-05 -2.66288054718e-07
1.27871523645e-05 -2.60962295329e-07
1.25314093182e-05 -2.55743046296e-07
1.2280781128e-05 -2.50628190201e-07
1.20351655113e-05 -2.45615616734e-07
1.17944621962e-05 -2.40703315058e-07
1.15585729574e-05 -2.35889238809e-07
1.1327401495e-05 -2.31171462417e-07
1.11008534631e-05 -2.2654803189e-07
1.08788363988e-05 -2.22017064289e-07
1.06612596653e-05 -2.17576733519e-07
1.04480344731e-05 -2.13225192169e-07
1.02390737879e-05 -2.089606852e-07
1.00342923091e-05 -2.04781478885e-07
9.83360646245e-06 -2.00685846607e-07
9.63693433675e-06 -1.96672125696e-07
9.44419564775e-06 -1.92738689009e-07
9.25531173124e-06 -1.88883916508e-07
9.07020550045e-06 -1.85106230788e-07
8.88880138916e-06 -1.81404111288e-07
8.71102535882e-06 -1.77776030341e-07
8.53680485591e-06 -1.74220502913e-07
8.36606875509e-06 -1.70736100813e-07
8.19874738056e-06 -1.67321374533e-07
8.03477243494e-06 -1.63974945622e-07
7.8740769851e-06 -1.60695449836e-07
7.71659544796e-06 -1.57481537144e-07
7.56226354071e-06 -1.54331907254e-07
7.41101826662e-06 -1.51245274083e-07
7.26279790086e-06 -1.48220365759e-07
7.11754194072e-06 -1.45255960149e-07
6.9751911056e-06 -1.42350835119e-07
6.83568728022e-06 -1.3950382538e-07
6.69897353589e-06 -1.36713744325e-07
6.56499406659e-06 -1.33979469297e-07
6.43369418185e-06 -1.31299884742e-07
6.30502029964e-06 -1.28673882216e-07
6.17891989663e-06 -1.26100403008e-07
6.055341494e-06 -1.23578402622e-07
5.93423466455e-06 -1.21106829454e-07
5.81554997581e-06 -1.18684688744e-07
5.69923897586e-06 -1.16310999942e-07
5.58525419336e-06 -1.13984782502e-07
5.47354910907e-06 -1.11705084294e-07
5.36407812746e-06 -1.09470981613e-07
5.2567965696e-06 -1.0728155786e-07
5.15166063764e-06 -1.0513593196e-07
5.0486274219e-06 -1.03033215737e-07
4.94765487247e-06 -1.00972549433e-07
4.84870177786e-06 -9.89530946072e-08
4.75172774372e-06 -9.69740341361e-08
4.65669318572e-06 -9.50345580009e-08
4.56355932243e-06 -9.31338632881e-08
4.47228813272e-06 -9.12711897172e-08
4.38284236992e-06 -8.94457627965e-08
4.29518552636e-06 -8.76568435615e-08
4.209281812e-06 -8.59037143641e-08
4.12509617576e-06 -8.41856362399e-08
4.04259425579e-06 -8.25019199624e-08
3.96174237238e-06 -8.08518834106e-08
3.88250752081e-06 -7.92348515688e-08
3.80485737139e-06 -7.76501494215e-08
3.72876022681e-06 -7.60971445857e-08
3.65418502213e-06 -7.45752046782e-08
3.58110131771e-06 -7.30837044216e-08
3.50947929206e-06 -7.16220256436e-08
3.43928970636e-06 -7.01895856992e-08
3.37050391153e-06 -6.87857948378e-08
3.30309383401e-06 -6.741007752e-08
3.23703196159e-06 -6.60618724169e-08
3.17229132207e-06 -6.4740639516e-08
3.10884549037e-06 -6.34458316995e-08
3.04666858142e-06 -6.21769089548e-08
2.98573521462e-06 -6.09333667967e-08
2.92602050678e-06 -5.97147078452e-08
2.86750010048e-06 -5.85204062986e-08
2.81015009307e-06 -5.73500074097e-08
2.75394709348e-06 -5.62029995876e-08
2.69886815119e-06 -5.50789422959e-08
2.64489079171e-06 -5.3977359471e-08
2.59199297403e-06 -5.28978176817e-08
2.54015311185e-06 -5.18398621807e-08
2.48935005231e-06 -5.0803059537e-08
2.43956304757e-06 -4.97870047411e-08
2.39077179032e-06 -4.87912572567e-08
2.34295634982e-06 -4.78154404959e-08
2.29609722879e-06 -4.68591210279e-08
2.25017527811e-06 -4.59219506865e-08
2.20517177496e-06 -4.50035031463e-08
2.16106833761e-06 -4.41034373466e-08
2.11784697512e-06 -4.3221362489e-08
2.07549003051e-06 -4.23569446184e-08
2.03398023046e-06 -4.15098000417e-08
1.99330062856e-06 -4.06796019092e-08
1.9534346194e-06 -3.98660091605e-08
1.91436592445e-06 -3.90686949459e-08
1.87607860624e-06 -3.82873182048e-08
1.83855703284e-06 -3.75215734039e-08
1.80178589204e-06 -3.67711407989e-08
1.76575017719e-06 -3.60357148566e-08
1.73043517293e-06 -3.53150042542e-08
1.69582646947e-06 -3.46087034586e-08
1.66190994122e-06 -3.39165282526e-08
1.6286717397e-06 -3.32382015245e-08
1.59609830774e-06 -3.25734319517e-08
1.5641763369e-06 -3.19219708445e-08
1.53289281002e-06 -3.12835268801e-08
1.50223495865e-06 -3.06578513687e-08
1.47219025592e-06 -3.00447027257e-08
1.44274645208e-06 -2.94438038395e-08
1.41389152475e-06 -2.88549273364e-08
1.38561369312e-06 -2.82778316318e-08
1.35790141798e-06 -2.77122751413e-08
1.33074338748e-06 -2.71580304911e-08
1.30412852428e-06 -2.66148632022e-08
1.27804594996e-06 -2.60825743226e-08
1.2524850348e-06 -2.55609151623e-08
1.22743533382e-06 -2.50497009802e-08
1.20288662231e-06 -2.4548711508e-08
1.17882889583e-06 -2.40577264776e-08
1.15525231337e-06 -2.35765824641e-08
1.13214726838e-06 -2.31050449884e-08
1.10950432486e-06 -2.26429435202e-08
1.08731423865e-06 -2.2190086213e-08
1.06556795032e-06 -2.17462883256e-08
1.04425659231e-06 -2.13113580116e-08
1.02337146046e-06 -2.08851318462e-08
1.00290403537e-06 -2.04674250881e-08
9.82845953956e-07 -2.0058081418e-08
9.63189030756e-07 -1.96569232003e-08
9.43925250851e-07 -1.92637799046e-08
9.25046748534e-07 -1.8878502317e-08
9.06545814416e-07 -1.8500934118e-08
8.88414895428e-07 -1.81309189884e-08
8.70646594819e-07 -1.77683006086e-08
8.53233665055e-07 -1.74129297648e-08
8.36168993601e-07 -1.70646714537e-08
8.19445610034e-07 -1.67233835668e-08
8.03056700249e-07 -1.63889097848e-08
7.86995563828e-07 -1.60611364208e-08
7.71255656673e-07 -1.57399071554e-08
7.55830541266e-07 -1.54251154072e-08
7.40713929304e-07 -1.51166119622e-08
7.25899653276e-07 -1.48142760281e-08
7.11381659357e-07 -1.45179939182e-08
6.97154028728e-07 -1.42276306292e-08
6.83210942043e-07 -1.39430866852e-08
6.69546729171e-07 -1.36642128723e-08
6.56155791035e-07 -1.33909381361e-08
6.43032677772e-07 -1.31231132627e-08
6.30172024785e-07 -1.2860652987e-08
6.17568581163e-07 -1.26034436221e-08
6.05217209682e-07 -1.23513714811e-08
5.93112865488e-07 -1.21043441936e-08
5.8125061031e-07 -1.18622551781e-08
5.69625598246e-07 -1.16250120641e-08
5.5823308287e-07 -1.13925153755e-08
5.47068424339e-07 -1.1164658531e-08
5.36127053863e-07 -1.09413704763e-08
5.25404516338e-07 -1.07225375245e-08
5.14896420611e-07 -1.05080957269e-08
5.0459849632e-07 -1.02979242911e-08
4.94506522841e-07 -1.00919734791e-08
4.84616393237e-07 -9.89012960417e-09
4.7492406452e-07 -9.69232871739e-09
4.65425586071e-07 -9.49847844822e-09
4.56117071224e-07 -9.30851484782e-09
4.46994732783e-07 -9.12233844019e-09
4.38054840401e-07 -8.93989238193e-09
4.29293741888e-07 -8.76109851333e-09
4.20707863213e-07 -8.58587867469e-09
4.12293708507e-07 -8.41415470632e-09
4.04047831637e-07 -8.24587687021e-09
3.95966878841e-07 -8.08095279581e-09
3.88047538991e-07 -7.91933985056e-09
3.80286586221e-07 -7.76095276933e-09
3.72680858618e-07 -7.60572760328e-09
3.65227244004e-07 -7.45361461441e-09
3.5792269415e-07 -7.30454985387e-09
3.50764238988e-07 -7.15845516197e-09
3.43748958187e-07 -7.01528080072e-09
3.36873981155e-07 -6.87497703211e-09
3.30136501248e-07 -6.73747990731e-09
3.23533768665e-07 -6.60273258291e-09
3.17063090449e-07 -6.47067821546e-09
3.10721830488e-07 -6.34125996157e-09
3.04507395299e-07 -6.21443518867e-09
2.98417248246e-07 -6.09014705333e-09
2.92448902428e-07 -5.96834581756e-09
2.86599920685e-07 -5.84898174338e-09
2.80867922697e-07 -5.73199798737e-09
2.75250563675e-07 -5.61735902238e-09
2.6974555567e-07 -5.505008005e-09
2.64350646262e-07 -5.3949094081e-09
2.59063632768e-07 -5.28701349367e-09
2.53882355139e-07 -5.18127762916e-09
2.48804710168e-07 -5.07764497115e-09
2.43828615965e-07 -4.97609420336e-09
2.38952047482e-07 -4.87656848236e-09
2.3417300099e-07 -4.77904649188e-09
2.29489543813e-07 -4.68345717763e-09
2.24899750378e-07 -4.58979343421e-09
2.20401759066e-07 -4.49799131275e-09
2.15993722463e-07 -4.4080366024e-09
2.11673850004e-07 -4.31987245975e-09
2.07440372435e-07 -4.2334775685e-09
2.03291563139e-07 -4.14880929611e-09
1.99225731023e-07 -4.06583211543e-09
1.95241220524e-07 -3.98451049932e-09
1.91336390287e-07 -3.90483023693e-09
1.87509662908e-07 -3.82672737942e-09
1.83759475192e-07 -3.75018771592e-09
1.80084285262e-07 -3.67518993016e-09
1.76482593872e-07 -3.60169138958e-09
1.72952944411e-07 -3.5296494616e-09
1.6949388737e-07 -3.4590570408e-09
1.6610400877e-07 -3.38987860005e-09
1.62781930158e-07 -3.3220786122e-09
1.59526287291e-07 -3.25564286641e-09
1.56335765666e-07 -3.19052162467e-09
1.53209050779e-07 -3.126714887e-09
1.50144870759e-07 -3.06418002083e-09
1.47141967943e-07 -3.0029028153e-09
1.44199134411e-07 -2.94283353242e-09
1.41315148028e-07 -2.88398638304e-09
1.38488843504e-07 -2.82630452375e-09
1.3571906976e-07 -2.76977374369e-09
1.33004689928e-07 -2.71437983201e-09
1.30344595561e-07 -2.660094367e-09
1.27737699529e-07 -2.60689603238e-09
1.25182950228e-07 -2.554749301e-09
1.2267928895e-07 -2.5036612783e-09
1.20225699618e-07 -2.45358933171e-09
1.17821187473e-07 -2.40451214495e-09
1.1546476486e-07 -2.35642261259e-09
1.13155472548e-07 -2.30929231293e-09
1.10892358407e-07 -2.26311414053e-09
1.08674512944e-07 -2.21784546284e-09
1.06501019559e-07 -2.17349338527e-09
1.04371004284e-07 -2.13001527527e-09
1.0228357894e-07 -2.08742534369e-09
1.00237912193e-07 -2.04566674711e-09
9.8233151391e-08 -2.00476080181e-09
9.62684865158e-08 -1.96466487523e-09
9.43431217593e-08 -1.92536475652e-09
9.24562542082e-08 -1.88686755109e-09
9.06071306872e-08 -1.84912352097e-09
8.87949909156e-08 -1.81213977157e-09
8.70190888236e-08 -1.77590209205e-09
8.52787067629e-08 -1.74038206069e-09
8.35731341908e-08 -1.70557257206e-09
8.19016676701e-08 -1.67146652075e-09
8.02636392905e-08 -1.6380283796e-09
7.8658366931e-08 -1.60527235948e-09
7.70851968923e-08 -1.57317003868e-09
7.55434967914e-08 -1.54170010092e-09
7.40326271398e-08 -1.51086965161e-09
7.25519697653e-08 -1.48065737449e-09
7.11009349175e-08 -1.45103484783e-09
6.96789115295e-08 -1.42202338793e-09
6.82853382727e-08 -1.39357325679e-09
6.69196253966e-08 -1.36571287612e-09
6.55812328887e-08 -1.33839250793e-09
6.4269613631e-08 -1.31161925765e-09
6.29842205058e-08 -1.28539312527e-09
6.17245348167e-08 -1.25968568909e-09
6.0490044973e-08 -1.23448984368e-09
5.9280239384e-08 -1.20980558904e-09
5.80946348805e-08 -1.18560450346e-09
5.69327482935e-08 -1.16188658694e-09
5.57940893486e-08 -1.13865894491e-09
5.46782104038e-08 -1.1158789448e-09
5.35846425009e-08 -1.0935679029e-09
5.25129522089e-08 -1.07169029206e-09
5.14626918857e-08 -1.05026032315e-09
5.04334352058e-08 -1.02925667989e-09
4.94247700544e-08 -1.0086651514e-09
4.84362772113e-08 -9.88492843135e-10
4.74675516671e-08 -9.68725544226e-10
4.65181955178e-08 -9.49356149249e-10
4.55878321759e-08 -9.30363341922e-10
4.46760779482e-08 -9.11754227673e-10
4.37825562472e-08 -8.93521701073e-10
4.29069046959e-08 -8.75651551269e-10
4.20487680231e-08 -8.58136672832e-10
4.12077909573e-08 -8.40977065764e-10
4.03836324381e-08 -8.24158519208e-10
3.95759656158e-08 -8.07666822311e-10
3.87844423244e-08 -7.91523291355e-10
3.80087570306e-08 -7.75685293775e-10
3.72485828848e-08 -7.60174145853e-10
3.65036072481e-08 -7.44975636735e-10
3.57735387979e-08 -7.30068450139e-10
3.50580648956e-08 -7.15473902346e-10
3.43569013239e-08 -7.01163571648e-10
3.36697638659e-08 -6.87137458044e-10
3.29963683043e-08 -6.73395561535e-10
3.23364446331e-08 -6.59923671265e-10
3.16897157404e-08 -6.46728892661e-10
3.10559187255e-08 -6.33797014871e-10
3.04348048985e-08 -6.21113827037e-10
2.98261042531e-08 -6.08700645444e-10
2.92295823101e-08 -5.96521942953e-10
2.86449903797e-08 -5.84591930419e-10
2.80720939827e-08 -5.72896396989e-10
2.75106515346e-08 -5.61442448088e-10
2.69604356617e-08 -5.50215872863e-10
2.64212260959e-08 -5.39209565886e-10
2.58928025687e-08 -5.28423527157e-10
2.5374944812e-08 -5.17857756677e-10
2.48674467684e-08 -5.07498043589e-10
2.43701023805e-08 -4.97344387895e-10
2.38826984855e-08 -4.87403895022e-10
2.34050432368e-08 -4.77655248687e-10
2.29369447879e-08 -4.68098448891e-10
2.24782041869e-08 -4.58740601061e-10
2.20286366925e-08 -4.49567494343e-10
2.15880646692e-08 -4.40572023308e-10
2.11563033758e-08 -4.31761293385e-10
2.07331822821e-08 -4.23121093718e-10
2.0318516647e-08 -4.14665635162e-10
1.99121430455e-08 -4.06373601436e-10
1.95139051584e-08 -3.98237887111e-10
1.91236253499e-08 -3.90279808471e-10
1.87411544061e-08 -3.82470943805e-10
1.83663289022e-08 -3.74825503968e-10
1.79989996241e-08 -3.67329278106e-10
1.76390244633e-08 -3.59975160791e-10
1.7286239995e-08 -3.52784468305e-10
1.69405183215e-08 -3.45721673511e-10
1.66017102288e-08 -3.38808092692e-10
1.62696736083e-08 -3.32036620421e-10
1.59442805625e-08 -3.25393045841e-10
1.56253960881e-08 -3.18884474382e-10
1.53128851821e-08 -3.12510906042e-10
1.50066270521e-08 -3.06258129967e-10
1.47064938005e-08 -3.00133251585e-10
1.44123646351e-08 -2.94129165468e-10
1.41241187634e-08 -2.88245871616e-10
1.38416353934e-08 -2.82483370029e-10
1.35648008381e-08 -2.76834555279e-10
1.32935085162e-08 -2.71292321941e-10
1.30276376353e-08 -2.65870880867e-10
1.27670816141e-08 -2.60556021203e-10
1.25117409766e-08 -2.55340637523e-10
1.22615091414e-08 -2.50231835253e-10
1.2016279527e-08 -2.45229614393e-10
1.17759526574e-08 -2.40326869516e-10
1.15404361622e-08 -2.35516495195e-10
1.130962346e-08 -2.30812702284e-10
1.10834292855e-08 -2.26194174502e-10
1.08617612682e-08 -2.21668017275e-10
1.06445270376e-08 -2.17234230604e-10
1.04316342231e-08 -2.12892814488e-10
1.0223004665e-08 -2.08629558074e-10
1.00185459928e-08 -2.04458672215e-10
9.81817294132e-09 -2.00373051484e-10
9.62180735087e-09 -1.96365590455e-10
9.42937106174e-09 -1.92436289126e-10
9.24078591424e-09 -1.88585147498e-10
9.05597374867e-09 -1.84812165571e-10
8.8748492999e-09 -1.81124448773e-10
8.69735572451e-09 -1.77493575393e-10
8.52340775737e-09 -1.73947967141e-10
8.35294144963e-09 -1.70466307736e-10
8.1858786416e-09 -1.67062808032e-10
8.02216248985e-09 -1.63716151746e-10
7.86172194012e-09 -1.60440549735e-10
7.70448593812e-09 -1.57236001996e-10
7.55039764044e-09 -1.54088297677e-10
7.39938599281e-09 -1.51011647631e-10
7.25140125724e-09 -1.47984735577e-10
7.10637237944e-09 -1.45028877796e-10
6.96424251601e-09 -1.42129863434e-10
6.82496192894e-09 -1.39280587064e-10
6.68845956397e-09 -1.36502364967e-10
6.55469278854e-09 -1.33766775434e-10
6.42359765379e-09 -1.31095134748e-10
6.29512442174e-09 -1.28473232053e-10
6.16922335439e-09 -1.25901067349e-10
6.04583760833e-09 -1.23385746065e-10
5.92492455098e-09 -1.20913057344e-10
5.80642023351e-09 -1.1850431747e-10
5.69029623421e-09 -1.16123999305e-10
5.57648860422e-09 -1.13807629987e-10
5.46496181641e-09 -1.11526787805e-10
5.35565902737e-09 -1.09302789042e-10
5.24854470996e-09 -1.07114317416e-10
5.1435762316e-09 -1.04968478354e-10
5.04070385432e-09 -1.02872377283e-10
4.93989205097e-09 -1.0081180335e-10
4.84109108356e-09 -9.88009674074e-11
4.74427253039e-09 -9.68185531747e-11
4.64938665345e-09 -9.48858769334e-11
4.55639792563e-09 -9.29887278289e-11
4.46527081976e-09 -9.11271058612e-11
4.37596270331e-09 -8.93081164577e-11
4.28844515454e-09 -8.75175487636e-11
4.20267554091e-09 -8.57696136336e-11
4.1186254407e-09 -8.40501002131e-11
4.03625222134e-09 -8.23732193567e-11
3.95552746113e-09 -8.07247602097e-11
3.87641563293e-09 -7.91118281995e-11
3.79888831503e-09 -7.75273178988e-11
3.7229099803e-09 -7.59783347348e-11
3.64845220702e-09 -7.44577732803e-11
3.57547946805e-09 -7.29727389626e-11
3.50397044713e-09 -7.15090209269e-11
3.4338896171e-09 -7.0080830028e-11
3.36521566169e-09 -6.86739554112e-11
3.29791305376e-09 -6.73026079312e-11
3.2319533716e-09 -6.59596821606e-11
3.16731529892e-09 -6.46380726721e-11
3.1039633086e-09 -6.33519903204e-11
3.04189029521e-09 -6.2073013396e-11
2.98104652074e-09 -6.08437744631e-11
2.92143198521e-09 -5.96145355303e-11
2.86299695063e-09 -5.84350345889e-11
2.80574141698e-09 -5.72555336475e-11
2.74962275171e-09 -5.61186652703e-11
2.69463384939e-09 -5.49889023205e-11
2.64073918288e-09 -5.38946665074e-11
2.58792454133e-09 -5.2814641549e-11
2.53616860846e-09 -5.17559328728e-11
2.48544296255e-09 -5.07256459059e-11
2.43573339276e-09 -4.97095697938e-11
2.38701858279e-09 -4.87148099637e-11
2.33927721638e-09 -4.77413664157e-11
2.29249508266e-09 -4.67821337224e-11
2.24664375992e-09 -4.58513227386e-11
2.20170903731e-09 -4.49347226095e-11
2.15767670397e-09 -4.40323333351e-11
2.11452544363e-09 -4.31512603427e-11
2.07223394e-09 -4.22915036324e-11
2.03078798222e-09 -4.14459577769e-11
1.99017335945e-09 -4.0614622776e-11
1.95036875539e-09 -3.98046040573e-11
1.91135995919e-09 -3.90087961932e-11
1.87313276001e-09 -3.82271991839e-11
1.83567294698e-09 -3.74598130293e-11
1.79895920382e-09 -3.67137431567e-11
1.76297731969e-09 -3.59818841389e-11
1.72772018914e-09 -3.52571305484e-11
1.6931664959e-09 -3.455369324e-11
1.65930202911e-09 -3.38644667863e-11
1.62611257792e-09 -3.31894511874e-11
1.59359103691e-09 -3.25215410157e-11
1.56172319521e-09 -3.18678416988e-11
1.53048773655e-09 -3.1235458664e-11
1.49987755549e-09 -3.06101810565e-11
1.46987844118e-09 -2.99991143038e-11
1.44048328821e-09 -2.93951529784e-11
1.41167078027e-09 -2.88125079351e-11
1.38344091738e-09 -2.82298628917e-11
1.35577238325e-09 -2.76685341305e-11
1.32865807245e-09 -2.71143107966e-11
1.30208377414e-09 -2.65742983174e-11
1.27604238287e-09 -2.60413912656e-11
1.2505196878e-09 -2.55226950685e-11
1.2255085835e-09 -2.50111042988e-11
1.20100196455e-09 -2.45066189564e-11
1.17697851465e-09 -2.4023449896e-11
1.15343823381e-09 -2.35402808357e-11
1.13037401661e-09 -2.30642172028e-11
1.10776454676e-09 -2.26094698519e-11
1.08560982426e-09 -2.2154722501e-11
1.06389563825e-09 -2.17141860048e-11
1.04261488332e-09 -2.1280754936e-11
1.02176755945e-09 -2.08473238672e-11
1.00133235037e-09 -2.04352090805e-11
9.81302150649e-10 -2.00301997211e-11
9.61676960287e-10 -1.96251903617e-11
9.4244256843e-10 -1.9234391857e-11
9.2359186965e-10 -1.88506987797e-11
9.05124863948e-10 -1.84670057024e-11
8.87020235041e-10 -1.81046289072e-11
8.69277982929e-10 -1.77422521119e-11
8.51898107612e-10 -1.73798753167e-11
8.34859292809e-10 -1.70388148035e-11
8.18161538518e-10 -1.66977542904e-11
8.01797739314e-10 -1.63637992046e-11
7.85760789768e-10 -1.60369495461e-11
7.70043584453e-10 -1.5717205315e-11
7.54646123369e-10 -1.53974610839e-11
7.39554195661e-10 -1.50919277075e-11
7.24760695903e-10 -1.47934997585e-11
7.10265624093e-10 -1.44950718095e-11
6.96061874805e-10 -1.42037492878e-11
6.82135237184e-10 -1.39266376209e-11
6.68492816658e-10 -1.36424205266e-11
6.55127507798e-10 -1.33653088596e-11
6.42025099751e-10 -1.31024080474e-11
6.29185592516e-10 -1.28395072352e-11
6.16601880665e-10 -1.25837118503e-11
6.04266858772e-10 -1.23350218928e-11
5.92180526837e-10 -1.20863319353e-11
5.80335779432e-10 -1.18447474051e-11
5.68732616557e-10 -1.1603162875e-11
5.57356827358e-10 -1.13757891995e-11
5.46208411834e-10 -1.11484155241e-11
5.35287369985e-10 -1.09210418486e-11
5.24579490957e-10 -1.07078790279e-11
5.14091880177e-10 -1.04876107798e-11
5.03803221363e-10 -1.02886588138e-11
4.9372772537e-10 -1.00754959931e-11
4.83858286771e-10 -9.86943859971e-12
4.7418069471e-10 -9.67759206105e-12
4.64694949187e-10 -9.4857455224e-12
4.55401050203e-10 -9.29389898374e-12
4.46291892331e-10 -9.10915787244e-12
4.3736747557e-10 -8.92441676115e-12
4.28620694493e-10 -8.74678107721e-12
4.20044443672e-10 -8.57625082062e-12
4.11645828535e-10 -8.39861513668e-12
4.03410638228e-10 -8.23519030746e-12
3.95345978177e-10 -8.06466005088e-12
3.87437637528e-10 -7.90834064901e-12
3.79692721708e-10 -7.74491581979e-12
3.72097019863e-10 -7.59570184528e-12
3.64650531992e-10 -7.44648787077e-12
3.57360363523e-10 -7.2901684689e-12
3.50212303601e-10 -7.14805992175e-12
3.43206352227e-10 -7.00595137459e-12
3.36342509399e-10 -6.86384282744e-12
3.29620775119e-10 -6.72173428029e-12
3.23026938531e-10 -6.59383658785e-12
3.16568105063e-10 -6.45883346806e-12
3.10237169288e-10 -6.33093577562e-12
3.04027025777e-10 -6.21014351054e-12
2.97951885386e-10 -6.07514039075e-12
2.91990431833e-10 -5.96145355303e-12
2.86149770545e-10 -5.84066128795e-12
2.80429901522e-10 -5.71986902287e-12
2.7481661391e-10 -5.6132876125e-12
2.69324118563e-10 -5.49249534743e-12
2.63938204625e-10 -5.38591393706e-12
2.58658872099e-10 -5.2793325267e-12
2.53486120982e-10 -5.17275111633e-12
2.48412845849e-10 -5.07327513333e-12
2.43446152126e-10 -4.96669372296e-12
2.38578934386e-10 -4.86721773996e-12
2.33804087202e-10 -4.77484718431e-12
2.29128716001e-10 -4.6753712013e-12
2.24545715355e-10 -4.58300064565e-12
2.20055085265e-10 -4.49063009e-12
2.15656825731e-10 -4.39825953436e-12
2.11343831324e-10 -4.31299440606e-12
2.07116102047e-10 -4.22772927777e-12
2.02973637897e-10 -4.14246414948e-12
1.98916438876e-10 -4.05719902119e-12
1.94937399556e-10 -3.97903932026e-12
1.91036519936e-10 -3.90087961932e-12
1.87213800018e-10 -3.82271991839e-12
1.83469239801e-10 -3.74456021746e-12
1.79802839284e-10 -3.66640051652e-12
1.76207493041e-10 -3.59534624295e-12
1.72683201072e-10 -3.52429196937e-12
1.69229963376e-10 -3.45323769579e-12
1.65840674526e-10 -3.38928884958e-12
1.62529545378e-10 -3.31112914864e-12
1.59275259648e-10 -3.25428572978e-12
1.56092028192e-10 -3.18323145621e-12
1.52965640154e-10 -3.12638803734e-12
1.49910306391e-10 -3.05533376377e-12
1.46911816046e-10 -2.99849034491e-12
1.4397016912e-10 -2.94164692605e-12
1.4109247104e-10 -2.87769807983e-12
1.38271616379e-10 -2.82085466097e-12
1.35507605137e-10 -2.76401124211e-12
1.32793331886e-10 -2.7142732506e-12
1.30143007482e-10 -2.65032440439e-12
1.27535315642e-10 -2.60769184024e-12
1.2498446722e-10 -2.55084842138e-12
1.2248335679e-10 -2.50111042988e-12
1.20039089779e-10 -2.44426701101e-12
1.17637455332e-10 -2.40163444687e-12
1.15285558877e-10 -2.35189645537e-12
1.12976294986e-10 -2.30926389122e-12
1.10716769086e-10 -2.25952589972e-12
1.08506981178e-10 -2.20978790821e-12
1.06332720406e-10 -2.17426077143e-12
1.04208197627e-10 -2.12452277992e-12
1.02126307411e-10 -2.08189021578e-12
1.00079944332e-10 -2.04636307899e-12
9.8076213817e-11 -2.00373051484e-12
9.61151158663e-11 -1.9610979507e-12
9.41966504797e-11 -1.91846538655e-12
9.231371223e-11 -1.88293824976e-12
9.0466301117e-11 -1.84741111298e-12
8.86544171408e-11 -1.81188397619e-12
8.68851657287e-11 -1.76925141204e-12
8.51443360261e-11 -1.74082970261e-12
8.34390334603e-11 -1.70530256582e-12
8.17763634586e-11 -1.66267000168e-12
8.0135009739e-11 -1.64135371961e-12
7.85362885836e-11 -1.59872115546e-12
7.69659891375e-11 -1.57029944603e-12
7.54241114009e-11 -1.5418777366e-12
7.39177608011e-11 -1.50635059981e-12
7.24398319107e-11 -1.47792889038e-12
7.09903247298e-11 -1.44950718095e-12
6.95692392583e-11 -1.42108547152e-12
6.81765754962e-11 -1.39266376209e-12
6.68123334435e-11 -1.36424205266e-12
6.54765131003e-11 -1.33582034323e-12
6.41691144665e-11 -1.3073986338e-12
6.28830321148e-11 -1.28608235173e-12
6.16253714725e-11 -1.2576606423e-12
6.03961325396e-11 -1.22923893286e-12
5.91882098888e-11 -1.20792265079e-12
5.80016035201e-11 -1.18660636872e-12
5.68434188608e-11 -1.15818465929e-12
5.57065504836e-11 -1.13686837722e-12
5.45909983884e-11 -1.11555209514e-12
5.35038680027e-11 -1.08713038571e-12
5.24309484717e-11 -1.072919531e-12
5.13793452228e-11 -1.05160324892e-12
5.03561636833e-11 -1.02318153949e-12
4.93471929985e-11 -1.00897068478e-12
4.83595385958e-11 -9.87654402707e-13
4.73932004752e-11 -9.66338120634e-13
4.64481786366e-11 -9.45021838561e-13
4.55173676528e-11 -9.30810983846e-13
4.4607872951e-11 -9.09494701773e-13
4.3712589104e-11 -8.95283847058e-13
4.2838621539e-11 -8.73967564985e-13
4.19859702561e-11 -8.52651282912e-13
4.11404244005e-11 -8.45545855555e-13
4.03233002544e-11 -8.17124146124e-13
3.95132815356e-11 -8.10018718767e-13