73800.8964982 6.79746211758 2.61902584596 0.00909090909091
70405.6565812 6.76151287523 3.79826603365 0.00909090909091
67108.0107353 6.72628261772 5.11075885748 0.00909090909091
63905.2572781 6.69175696537 6.51885275499 0.00909090909091
60794.7351886 6.65792182606 7.98836253287 0.00909090909091
57773.8255586 6.62476338954 9.48850338993 0.00909090909091
54839.9531916 6.59226812175 10.9917977596 0.00909090909091
51990.5882684 6.56042275931 12.4739594288 0.00909090909091
49223.2480148 6.52921430413 13.9137590572 0.00909090909091
46535.4983158 6.49863001804 15.2928748812 0.00909090909091
43924.9552341 6.46865741768 16.5957320562 0.00909090909091
41389.2863988 6.43928426933 17.8093337583 0.00909090909091
38926.2122383 6.41049858394 18.923086849 0.00909090909091
36533.5070401 6.38228861226 19.9286245976 0.00909090909091
34208.9998245 6.35464284002 20.8196286602 0.00909090909091
31950.5750272 6.32754998322 21.5916522383 0.00909090909091
29756.1729877 6.30099898355 22.2419460739 0.00909090909091
27623.7902455 6.27497900388 22.7692886936 0.00909090909091
25551.4796495 6.2494794238 23.1738220877 0.00909090909091
23537.3502881 6.22448983533 23.4568937964 0.00909090909091
21579.5672488 6.20000003862 23.6209061879 0.00909090909091
19676.3512186 6.17600003785 23.6691735323 0.00909090909091
17825.977937 6.15248003709 23.6057873217 0.00909090909091
16026.7775145 6.12943043635 23.4354901429 0.00909090909091
14277.1336291 6.10684182762 23.1635582823 0.00909090909091
12575.4826145 6.08470499107 22.7956931342 0.00909090909091
10920.3124521 6.06301089125 22.3379213819 0.00909090909091
9310.1616809 6.04175067342 21.7965038431 0.00909090909091
7743.61823661 6.02091565996 21.1778527917 0.00909090909091
6219.31823183 6.00049734676 20.4884575162 0.00909090909091
4735.944689 5.98048739982 19.7348178167 0.00909090909091
3292.22623631 5.96087765183 18.9233851083 0.00909090909091
1886.93577616 5.94166009879 18.0605107637 0.00909090909091
518.889135563 5.92282689681 17.1524013045 0.00909090909091
-93.796537919 5.90437035888 16.2081144115 0.00909090909091
-86.860056363 5.8862829517 15.2386328199 0.00909090909091
-80.0312024248 5.86855729267 14.2539757567 0.00909090909091
-73.3626594552 5.85118614681 13.2632215581 0.00909090909091
-66.8980989248 5.83416242388 12.2745358066 0.00909090909091
-60.6730066101 5.8174791754 11.2952040858 0.00909090909091
-54.7154775145 5.80112959189 10.3316685189 0.00909090909091
-49.0469752306 5.78510700005 9.38956732364 0.00909090909091
-43.6830525126 5.76940486005 8.47377668338 0.00909090909091
-38.6340307744 5.75401676285 7.58845429667 0.00909090909091
-33.9056370552 5.73893642759 6.7370840321 0.00909090909091
-29.4995977047 5.72415769904 5.92252117278 0.00909090909091
-25.4141886415 5.70967454506 5.14703779292 0.00909090909091
-21.6447425727 5.69548105416 4.41236786272 0.00909090909091
-18.1841139736 5.68157143308 3.71975172858 0.00909090909091
-15.0231029985 5.66794000441 3.06997966391 0.00909090909091
-12.1508397727 5.65458120433 2.46343423001 0.00909090909091
-9.55513073989 5.64148958024 1.90013122839 0.00909090909091
-7.22276891441 5.62865978864 1.37975906377 0.0047619047619
-5.1398100113 5.61608659286 0.901716372657 0.0047619047619
-3.29181650499 5.60376486101 0.465147804121 0.0047619047619
-1.66407171735 5.59168956379 0.068977868789 0.0047619047619
-0.24176604963 5.57985577251 -0.288057201546 0.0047619047619
0.989842539329 5.56825865706 -0.6073796178 0.0047619047619
2.04529173823 5.55689348392 -0.890542233909 0.0047619047619
2.93879975378 5.54575561424 -1.13920277799 0.0047619047619
3.68416989398 5.53484050195 -1.3551000924 0.0047619047619
4.29471298998 5.52414369192 -1.54003234678 0.0047619047619
4.78318586865 5.51366081808 -1.69583717576 0.0047619047619
5.16174418231 5.50338760172 -1.8243736831 0.0047619047619
5.44190799848 5.49331984968 -1.92750624532 0.0047619047619
5.63453865467 5.48345345269 -2.00709004092 0.0047619047619
5.74982548387 5.47378438363 -2.06495822595 0.0
5.79728111856 5.46430869596 -2.10291067236 0.0
5.78574418051 5.45502252204 -2.12270418278 0.0
5.72338826406 5.4459220716 -2.12604409326 0.0
5.61773621158 5.43700363017 -2.11457717462 0.0
5.47567877574 5.42826355757 -2.08988574313 0.0
5.30349684778 5.41969828641 -2.05348289151 0.0
5.10688651639 5.41130432069 -2.00680875292 0.0
4.89098629732 5.40307823427 -1.9512277121 0.0
4.66040595142 5.39501666959 -1.88802648038 0.0
4.4192563758 5.3871163362 -1.81841295391 0.0
4.17118011546 5.37937400947 -1.74351577743 0.0
3.91938210587 5.37178652928 -1.66438453928 0.0
3.66666030865 5.3643507987 -1.58199052688 0.0
3.41543595253 5.35706378272 -1.49722797554 0.0
3.16778314019 5.34992250707 -1.41091574712 0.0
2.9254576189 5.34292405693 -1.32379937916 0.0
2.68992455421 5.33606557579 -1.23655344856 0.0
2.46238517621 5.32934426427 -1.14978419816 0.0
2.24380219967 5.32275737899 -1.06403237802 0.0
2.03492394615 5.31630223141 -0.97977625716 0.0
1.8363071165 5.30997618678 -0.897434765004 0.0
1.64833818809 5.30377666304 -0.817370725525 0.0
1.47125342245 5.29770112978 -0.73989415027 0.0
1.30515748978 5.29174710719 -0.665265559945 0.0
1.15004072617 5.28591216504 -0.593699307275 0.0
1.0057950519 5.28019392174 -0.525366876884 0.0
0.872228588336 5.27459004331 -0.460400140794 0.0
0.749079017249 5.26909824244 -0.398894550815 0.0
0.636025733229 5.26371627759 -0.340912251613 0.0
0.532700844032 5.25844195204 -0.286485100621 0.0
0.438699076948 5.253273113 -0.235617583139 0.0
0.353586651613 5.24820765074 -0.188289613012 0.0
0.27690918092 5.24324349773 -0.144459211163 0.0
0.20819866249 5.23837862777 -0.104065055975 0.0
0.146979622755 5.23361105522 -0.0670289010988 0.0
0.0927744749526 5.22893883411 -0.0332578577131 0.0
0.0451081513986 5.22436005743 -0.00264653953632 0.0
0.00351206848813 5.21987285628 0.0249209299171 0.00526315789474
-0.0324725190038 5.21547539915 0.0495690473181 0.00526315789474
-0.0632917199225 5.21116589117 0.0714291952955 0.00526315789474
-0.0893767131547 5.20694257335 0.0906380417424 0.00526315789474
-0.111141909093 5.20280372188 0.107336069697 0.00526315789474
-0.128983519547 5.19874764744 0.121666234227 0.00526315789474
-0.143278492165 5.19477269449 0.133772742243 0.00526315789474
-0.154383768248 5.1908772406 0.143799950722 0.00526315789474
-0.162635825655 5.18705969579 0.151891378488 0.00526315789474
-0.168350471126 5.18331850188 0.158188826419 0.00526315789474
-0.171822849124 5.17965213184 0.162831600718 0.00526315789474
-0.173327636981 5.1760590892 0.165955833777 0.00526315789474
-0.173119398432 5.17253790742 0.167693897028 0.00526315789474
-0.171433070264 5.16908714927 0.168173900155 0.00526315789474
-0.168484559217 5.16570540628 0.167519271037 0.0
-0.16447142807 5.16239129816 0.165848410825 0.0
-0.159573652399 5.1591434722 0.163274418644 0.0
-0.153954431279 5.15596060275 0.159904880491 0.0
-0.147761036984 5.1528413907 0.155841717074 0.0
-0.141125690485 5.14978456288 0.151181085436 0.0
-0.134166451416 5.14678887163 0.146013329437 0.0
-0.126988112141 5.14385309419 0.140422974314 0.0
-0.119683087497 5.14097603231 0.134488760765 0.0
-0.112332292673 5.13815651166 0.1282837142 0.0
-0.105006002807 5.13539338143 0.121875245041 0.0
-0.0977646893632 5.1326855138 0.115325276139 0.0
-0.0906598286762 5.13003180352 0.108690393659 0.0
-0.083734679411 5.12743116745 0.102022017957 0.0
-0.0770250261982 5.12488254411 0.0953665912324 0.0
-0.0705598874119 5.12238489322 0.0887657789566 0.0
-0.0643621857943 5.11993719536 0.0822566823018 0.0
-0.058449380896 5.11753845145 0.0758720590035 0.0
-0.0528340631586 5.11518768242 0.0696405503108 0.0
-0.0475245093745 5.11288392877 0.0635869118809 0.0
-0.0425252001507 5.1106262502 0.0577322466692 0.0
-0.0378372997956 5.10841372519 0.0520942380596 0.0
-0.0334590996563 5.10624545069 0.04668738166 0.0
-0.0293864259664 5.10412054168 0.0415232143627 0.0
-0.0256130134503 5.10203813084 0.0366105394308 0.0
-0.0221308461248 5.09999736823 0.0319556465319 0.0
-0.0189304667471 5.09799742086 0.0275625257814 0.0
-0.016001256513 5.09603747244 0.0234330749993 0.0
-0.0133316866265 5.094116723 0.01956729951 0.0
-0.0109095433567 5.09223438854 0.015963503935 0.0
-0.00872212827165 5.09038970077 0.012618475538 0.0
-0.00675643527918 5.08858190675 0.00952765878322 0.0
-0.00499930610061 5.08681026861 0.00668532086382 0.0
-0.00343756577889 5.08507406324 0.00408470803783 0.0
-0.00205813976705 5.08337258198 0.00171819269082 0.0
-0.000848154099835 5.08170513034 -0.000422588888509 0.0
0.000204979913931 5.08007102773 -0.00234660796975 0.0
0.00111349508806 5.07846960718 -0.00406332397392 0.0
0.00188921053773 5.07690021503 -0.00558257404354 0.0
0.00254348538511 5.07536221073 -0.00691447139199 0.0111111111111
0.00308718282611 5.07385496652 -0.00806931219709 0.0111111111111
0.00353064343598 5.07237786719 -0.00905749077197 0.0111111111111
0.00388366669532 5.07093030984 -0.0098894227197 0.0111111111111
0.00415549976004 5.06951170365 -0.0105754757559 0.0111111111111
0.00435483257823 5.06812146957 -0.0111259078658 0.0111111111111
0.00448979853971 5.06675904018 -0.0115508124491 0.0111111111111
0.00456797987171 5.06542385938 -0.0118600700948 0.0111111111111
0.00459641710533 5.06411538219 -0.0120633066234 0.0111111111111
0.00458162195384 5.06283307455 -0.0121698570283 0.0111111111111
0.00452959303196 5.06157641306 -0.0121887349494 0.0111111111111
0.00444583388947 5.0603448848 -0.0121286073118 0.0111111111111
0.00433537287654 5.0591379871 -0.0119977737679 0.0111111111111
0.00420278442848 5.05795522736 -0.0118041505872 0.0111111111111
0.00405221137817 5.05679612281 -0.011555258643 0.0111111111111
0.00388738796725 5.05566020035 -0.0112582151594 0.0111111111111
0.00371166326194 5.05454699635 -0.0109197288863 0.0111111111111
0.00352802470769 5.05345605642 -0.0105460983869 0.0111111111111
0.00333912159888 5.05238693529 -0.0101432131315 0.0111111111111
0.00314728828439 5.05133919659 -0.00971655710479 0.0111111111111
0.00295456691898 5.05031241265 -0.00927121464852 0.0111111111111
0.0027627296511 5.0493061644 -0.00881187827486 0.0111111111111
0.00257330011254 5.04832004111 -0.00834285819945 0.0111111111111
0.00238757412536 5.04735364029 -0.00786809335877 0.0111111111111
0.00220663955801 5.04640656748 -0.00739116369009 0.0111111111111
0.00203139526458 5.04547843614 -0.00691530346704 0.0111111111111
0.00186256907901 5.04456886741 -0.00644341549814 0.0111111111111
0.00170073482806 5.04367749006 -0.00597808600961 0.0111111111111
0.00154632835671 5.04280394026 -0.00552160004762 0.0111111111111
0.00139966255722 5.04194786146 -0.00507595724875 0.0111111111111
0.00126094141358 5.04110890423 -0.00464288784001 0.0111111111111
0.00113027306556 5.04028672614 -0.00422386874311 0.0111111111111
0.00100768192371 5.03948099162 -0.00382013966895 0.0111111111111
0.000893119850307 5.03869137179 -0.00343271910065 0.0111111111111
0.000786476445099 5.03791754435 -0.00306242007403 0.0111111111111
0.000687588463924 5.03715919347 -0.0027098656753 0.0111111111111
0.000596248409801 5.0364160096 -0.00237550418545 0.0111111111111
0.000512212333935 5.0356876894 -0.00205962381044 0.0111111111111
0.000435206888343 5.03497393562 -0.0017623669451 0.0111111111111
0.000364935670076 5.0342744569 -0.00148374392676 0.0111111111111
0.000301084900758 5.03358896777 -0.00122364624255 0.0111111111111
0.000243328480089 5.03291718841 -0.000981859161489 0.0111111111111
0.000191332459296 5.03225884464 -0.000758073768718 0.0111111111111
0.000144758971051 5.03161366775 -0.000551898385938 0.0111111111111
0.00010326965902 5.03098139439 -0.00036286936711 0.0111111111111
6.65286441239e-05 5.03036176651 -0.000190461263871 0.0111111111111
3.42050660325e-05 5.02975453118 -3.40963596313e-05 0.0111111111111
5.97523524082e-06 5.02915944055 0.000106846424584 0.0111111111111
-1.84755691079e-05 5.02857625174 0.000233023245746 0.0111111111111
-3.94516232287e-05 5.02800472671 0.000345117665842 0.0111111111111
-5.72455732009e-05 5.02744463217 0.00044383357736 0.0111111111111
-7.21375104868e-05 5.02689573953 0.000529888711807 0.0111111111111
-8.43942812341e-05 5.02635782474 0.000604008713673 0.0111111111111
-9.42690027412e-05 5.02583066824 0.000666921760448 0.0111111111111
-0.000102000763837 5.02531405488 0.000719353707749 0.0111111111111
-0.000107814485913 5.02480777378 0.000762023737448 0.0111111111111
-0.000111920924757 5.02431161831 0.000795640485677 0.0
-0.000114516792914 5.02382538594 0.000820898626912 0.0
-0.000115784986211 5.02334887822 0.000838475889823 0.0
-0.000115894897655 5.02288190066 0.000849030480292 0.0
-0.000115002804174 5.02242426264 0.000853198886924 0.0
-0.000113252313198 5.02197577739 0.000851594044404 0.0
-0.000110774856882 5.02153626184 0.000844803830307 0.0
-0.000107690223447 5.02110553661 0.000833389871285 0.0
-0.000104107115646 5.02068342587 0.000817886635044 0.0
-0.000100123728532 5.02026975736 0.000798800785086 0.0
-9.58283381719e-05 5.01986436221 0.000776610775844 0.0
-9.12998954522e-05 5.01946707497 0.000751766666581 0.0
-8.66086187463e-05 5.01907773347 0.000724690133205 0.0
-8.18165806142e-05 5.0186961788 0.000695774658027 0.0
-7.69782846463e-05 5.01832225522 0.000665385878346 0.0
-7.21412283096e-05 5.01795581012 0.00063386207568 0.0
-6.73464493121e-05 5.01759669391 0.000601514788424 0.0
-6.26290528659e-05 5.01724476004 0.000568629531627 0.0
-5.80187179444e-05 5.01689986483 0.000535466608587 0.0
-5.35401812186e-05 5.01656186754 0.000502261999906 0.0
-4.92136972667e-05 5.01623063019 0.000469228316597 0.00909090909091
-4.50554745107e-05 5.01590601758 0.000436555804802 0.00909090909091
-4.10780867573e-05 5.01558789723 0.000404413390575 0.00909090909091
-3.72908593895e-05 5.01527613929 0.000372949754138 0.00909090909091
-3.37002312397e-05 5.0149706165 0.00034229442384 0.00909090909091
-3.03100916109e-05 5.01467120417 0.000312558880974 0.00909090909091
-2.71220934867e-05 5.01437778009 0.000283837667371 0.00909090909091
-2.4135943119e-05 5.01409022449 0.000256209488512 0.00909090909091
-2.13496669347e-05 5.01380842 0.000229738305674 0.00909090909091
-1.87598565611e-05 5.0135322516 0.000204474411306 0.00909090909091
-1.63618926986e-05 5.01326160656 0.000180455482555 0.00909090909091
-1.41501489841e-05 5.01299637443 0.000157707608501 0.00909090909091
-1.21181766972e-05 5.01273644694 0.000136246287265 0.00909090909091
-1.02588714663e-05 5.01248171801 0.000116077389741 0.00909090909091
-8.56462279769e-06 5.01223208365 9.71980872267e-05 0.00909090909091
-7.02744770975e-06 5.01198744197 7.95977407496e-05 0.00909090909091
-5.63910933743e-06 5.01174769313 6.3258750324e-05 0.00909090909091
-4.39122159296e-06 5.01151273927 4.81573628209e-05 0.00909090909091
-3.27534090749e-06 5.01128248449 3.42644375215e-05 0.00909090909091
-2.2830459615e-06 5.0110568348 2.15461687826e-05 0.00909090909091
-1.40600642373e-06 5.0108356981 9.96476557215e-06 0.00909090909091
-6.3604156092e-07 5.01061898414 -5.20912071075e-07 0.00909090909091
3.483038577e-08 5.01040660446 -9.95475933509e-06 0.00909090909091
6.14351222311e-07 5.01019847237 -1.83828751328e-05 0.00909090909091
1.10998944222e-06 5.00999450292 -2.58530520346e-05 0.00909090909091
1.52891372887e-06 5.00979461286 -3.24143066855e-05 0.00909090909091
1.87797259885e-06 5.0095987206 -3.81164495976e-05 0.00909090909091
2.1636795578e-06 5.00940674619 -4.3009693072e-05 0.00909090909091
2.39220311607e-06 5.00921861127 -4.71442958907e-05 0.00909090909091
2.56936109833e-06 5.00903423904 -5.0570243322e-05 0.00909090909091
2.70061872318e-06 5.00885355426 -5.33369609099e-05 0.00909090909091
2.79108993614e-06 5.00867648318 -5.54930604562e-05 0.00909090909091
2.84554156935e-06 5.00850295351 -5.70861165642e-05 0.00909090909091
2.86839987788e-06 5.00833289444 -5.81624720822e-05 0.00909090909091
2.86375909944e-06 5.00816623655 -5.87670707707e-05 0.00909090909091
2.83539167822e-06 5.00800291182 -5.89433155158e-05 0.00909090909091
2.78675983512e-06 5.00784285359 -5.87329504167e-05 0.00909090909091
2.72102821817e-06 5.00768599651 -5.81759650949e-05 0.00909090909091
2.64107736582e-06 5.00753227658 -5.73105195982e-05 0.00909090909091
2.54951775316e-06 5.00738163105 -5.61728883053e-05 0.00909090909091
2.44870425044e-06 5.00723399843 -5.47974212804e-05 0.00909090909091
2.34075076849e-06 5.00708931846 -5.32165215694e-05 0.00909090909091
2.22754499016e-06 5.00694753209 -5.14606369836e-05 0.00909090909091
2.11076301807e-06 5.00680858145 -4.95582649697e-05 0.00909090909091
1.99188382801e-06 5.00667240982 -4.75359692243e-05 0.00909090909091
1.8722034588e-06 5.00653896163 -4.54184067714e-05 0.00909090909091
1.7528487986e-06 5.00640818239 -4.32283642849e-05 0.00909090909091
1.63479098637e-06 5.00628001875 -4.09868025013e-05 0.00909090909091
1.51885826772e-06 5.00615441837 -3.87129076331e-05 0.00909090909091
1.40574836354e-06 5.00603133 -3.64241487596e-05 0.00909090909091
1.29604025181e-06 5.0059107034 -3.41363402362e-05 0.00909090909091
1.19020534882e-06 5.00579248933 -3.18637082265e-05 0.00909090909091
1.08861812176e-06 5.00567663955 -2.96189605285e-05 0.00909090909091
9.91566049637e-07 5.00556310676 -2.74133589269e-05 0.00909090909091
8.99258994887e-07 5.00545184462 -2.52567933628e-05 0.00909090909091
8.11837950072e-07 5.00534280773 -2.31578572764e-05 0.00909090909091
7.29383195912e-07 5.00523595158 -2.11239235308e-05 0.00909090909091
6.51921853452e-07 5.00513123254 -1.91612203828e-05 0.00909090909091
5.79434880077e-07 5.00502860789 -1.72749070214e-05 0.00909090909091
5.11863488841e-07 5.00492803573 -1.54691482414e-05 0.00909090909091
4.49115054767e-07 5.00482947502 -1.37471878722e-05 0.00909090909091
3.91068490008e-07 5.00473288552 -1.2111420626e-05 0.00909090909091
3.37579143847e-07 5.00463822781 -1.05634620732e-05 0.00909090909091
2.88483230294e-07 5.00454546325 -9.10421649295e-06 0.00909090909091
2.43601821794e-07 5.00445455399 -7.73394238906e-06 0.00909090909091
2.02744423895e-07 5.00436546291 -6.45231549155e-06 0.00909090909091
1.65712172651e-07 5.00427815365 -5.25848910279e-06 0.00909090909091
1.32300657676e-07 5.00419259058 -4.15115167524e-06 0.00909090909091
1.02302418738e-07 5.00410873877 -3.12858153737e-06 0.00909090909091
7.55091218996e-08 5.00402656399 -2.18869871052e-06 0.0047619047619
5.17134544145e-08 5.00394603271 -1.32911378325e-06 0.0047619047619
3.07107469906e-08 5.00386711206 -5.4717383165e-07 0.0047619047619
1.23003587454e-08 5.00378976982 1.59994606215e-07 0.0047619047619
-3.71316349716e-09 5.00371397442 7.95445476076e-07 0.0047619047619
-1.75191260301e-08 5.00363969493 1.36237603189e-06 0.0047619047619
-2.92999120834e-08 5.00356690103 1.86409248364e-06 0.0047619047619
-3.92303697132e-08 5.00349556301 2.3039784009e-06 0.0047619047619
-4.74773473452e-08 5.00342565175 2.6854657943e-06 0.0047619047619
-5.41993597641e-08 5.00335713872 3.0120087878e-06 0.0047619047619
-5.95463709712e-08 5.00328999594 3.28705978737e-06 0.0047619047619
-6.3659679252e-08 5.00322419602 3.51404804529e-06 0.0047619047619
-6.66718914417e-08 5.0031597121 3.69636051467e-06 0.0047619047619
-6.87069742072e-08 5.00309651786 3.83732488459e-06 0.0047619047619
-6.98803725753e-08 5.0030345875 3.94019468407e-06 0.0047619047619
-7.02991852898e-08 5.00297389575 4.00813634073e-06 0.0047619047619
-7.00623856431e-08 5.00291441784 4.04421807988e-06 0.0047619047619
-6.92610832281e-08 5.00285612948 4.05140054894e-06 0.00526315789474
-6.79788167519e-08 5.00279900689 4.0325290535e-06 0.00526315789474
-6.62918696898e-08 5.00274302675 3.99032729218e-06 0.00526315789474
-6.42696089664e-08 5.00268816622 3.92739247945e-06 0.00526315789474
-6.19748306125e-08 5.00263440289 3.84619174813e-06 0.00526315789474
-5.94641204987e-08 5.00258171484 3.749059726e-06 0.00526315789474
-5.67882146351e-08 5.00253008054 3.63819718405e-06 0.00526315789474
-5.39923619095e-08 5.00247947893 3.51567065772e-06 0.00526315789474
-5.11166847786e-08 5.00242988935 3.38341294612e-06 0.00526315789474
-4.81965331839e-08 5.00238129156 3.24322439812e-06 0.00526315789474
-4.526283289e-08 5.00233366573 3.09677489861e-06 0.00526315789474
-4.23424217255e-08 5.00228699242 2.94560647238e-06 0.00526315789474
-3.94583780449e-08 5.00224125257 2.7911364276e-06 0.00526315789474
-3.66303335037e-08 5.00219642752 2.63466096508e-06 0.00526315789474
-3.38747747777e-08 5.00215249897 2.47735918422e-06 0.00526315789474
-3.12053304172e-08 5.00210944899 2.3202974209e-06 0.0
-2.8633042831e-08 5.00206726001 2.16443385685e-06 0.0
-2.61666259759e-08 5.00202591481 2.01062334454e-06 0.0
-2.38127067061e-08 5.00198539651 1.85962239587e-06 0.0
-2.15760530847e-08 5.00194568858 1.71209428698e-06 0.0
-1.94597850583e-08 5.00190677481 1.56861423568e-06 0.0
-1.74655728767e-08 5.00186863931 1.4296746118e-06 0.0
-1.55938189752e-08 5.00183126653 1.29569014455e-06 0.0
-1.38438275203e-08 5.0017946412 1.16700309468e-06 0.0
-1.22139593023e-08 5.00175874837 1.04388836251e-06 0.0
-1.07017736155e-08 5.00172357341 9.26558506375e-07 0.0
-9.30415847708e-09 5.00168910194 8.15168648948e-07 0.0
-8.01744814223e-09 5.0016553199 7.09821252079e-07 0.0
-6.83752944086e-09 5.0016222135 6.10570743345e-07 0.0
-5.75993797862e-09 5.00158976923 5.17427980243e-07 0.0
-4.77994364445e-09 5.00155797385 4.30364540336e-07 0.0
-3.89262725287e-09 5.00152681437 3.49316827922e-07 0.0
-3.09294800882e-09 5.00149627808 2.74189989897e-07 0.0
-2.37580316748e-09 5.00146635252 2.04861635408e-07 0.0
-1.73607980617e-09 5.00143702547 1.41185355646e-07 0.0
-1.16869997425e-09 5.00140828496 8.29940417797e-08 0.00909090909091
-6.68659098143e-10 5.00138011926 3.01030004396e-08 0.00909090909091
-2.31058785603e-10 5.00135251688 -1.76871324515e-08 0.00909090909091
1.48865882512e-10 5.00132546654 -6.05876775729e-08 0.00909090909091
4.75723847685e-10 5.00129895721 -9.88193948137e-08 0.00909090909091
7.53949940349e-10 5.00127297806 -1.3261015866e-07 0.00909090909091
9.87790750996e-10 5.0012475185 -1.62192821618e-07 0.00909090909091
1.18129395079e-09 5.00122256813 -1.87803260222e-07 0.00909090909091
1.33830087322e-09 5.00119811677 -2.09678597586e-07 0.00909090909091
1.46244169986e-09 5.00117415443 -2.28055595954e-07 0.00909090909091
1.55713327811e-09 5.00115067135 -2.43169212296e-07 0.00909090909091
1.62557889621e-09 5.00112765792 -2.55251309666e-07 0.00909090909091
1.6707700708e-09 5.00110510476 -2.64529516819e-07 0.00909090909091
1.69548971911e-09 5.00108300267 -2.71226228361e-07 0.00909090909091
1.70231684456e-09 5.00106134261 -2.75557737647e-07 0.00909090909091
1.6936322131e-09 5.00104011576 -2.77733494569e-07 0.00909090909091
1.67162498579e-09 5.00101931344 -2.77955480363e-07 0.00909090909091
1.63830013477e-09 5.00099892718 -2.76417691671e-07 0.00909090909091
1.59548632189e-09 5.00097894863 -2.73305726124e-07 0.00909090909091
1.54484425903e-09 5.00095936966 -2.68796461902e-07 0.00909090909091
1.4878754691e-09 5.00094018227 -2.63057823873e-07 0.00909090909091
1.42593098033e-09 5.00092137862 -2.56248629094e-07 0.00909090909091
1.36022036413e-09 5.00090295105 -2.48518504733e-07 0.00909090909091
1.29182057158e-09 5.00088489203 -2.40007871654e-07 0.00909090909091
1.22168486913e-09 5.00086719419 -2.30847987209e-07 0.00909090909091
1.15065142237e-09 5.0008498503 -2.21161041051e-07 0.00909090909091
1.07945187471e-09 5.0008328533 -2.11060298059e-07 0.00909090909091
1.00871952521e-09 5.00081619623 -2.00650282776e-07 0.00909090909091
9.38997382989e-10 5.00079987231 -1.90027000042e-07 0.00909090909091
8.70745723182e-10 5.00078387486 -1.79278186834e-07 0.00909090909091
8.04349478389e-10 5.00076819736 -1.68483590615e-07 0.00909090909091
7.40125194133e-10 5.00075283342 -1.5771526979e-07 0.00909090909091
6.78327592945e-10 5.00073777675 -1.47037912195e-07 0.00909090909091
6.1915588606e-10 5.00072302121 -1.36509167807e-07 0.00909090909091
5.62759538717e-10 5.00070856079 -1.26179992185e-07 0.0
5.0924385142e-10 5.00069438957 -1.16094997416e-07 0.0
4.58675025844e-10 5.00068050178 -1.06292807622e-07 0.0
4.11084936599e-10 5.00066689175 -9.68064163434e-08 0.0
3.66475535194e-10 5.00065355391 -8.76635433916e-08 0.0
3.24822907815e-10 5.00064048283 -7.88869889726e-08 0.0
2.86081025785e-10 5.00062767318 -7.04949831573e-08 0.0
2.50185118147e-10 5.00061511971 -6.2501528969e-08 0.0
2.17054816557e-10 5.00060281732 -5.49167375861e-08 0.0
1.86596947244e-10 5.00059076097 -4.77471543506e-08 0.0
1.587080959e-10 5.00057894575 -4.0996074465e-08 0.0
1.3327686841e-10 5.00056736684 -3.46638474344e-08 0.0
1.10185962324e-10 5.0005560195 -2.87481694766e-08 0.0
8.93139571361e-11 5.00054489911 -2.32443632746e-08 0.0111111111111
7.05369287556e-11 5.00053400113 -1.814564459e-08 0.0111111111111
5.37298589003e-11 5.00052332111 -1.3443375383e-08 0.0111111111111
3.8767849838e-11 5.00051285468 -9.12730320656e-09 0.0111111111111
2.55271876364e-11 5.00050259759 -5.18578675147e-09 0.0111111111111
1.38862439342e-11 5.00049254564 -1.60600751674e-09 0.0111111111111
3.72623409721e-12 5.00048269473 1.62583233028e-09 0.0111111111111
-5.06814666732e-12 5.00047304083 4.52432575956e-09 0.0111111111111
-1.26082061051e-11 5.00046358001 7.10469013468e-09 0.0111111111111
-1.90008445176e-11 5.00045430841 9.38260964195e-09 0.0111111111111
-2.43482340545e-11 5.00044522225 1.137409056e-08 0.0111111111111
-2.87475859361e-11 5.0004363178 1.30953289902e-08 0.0111111111111
-3.22909909261e-11 5.00042759144 1.45625906291e-08 0.0111111111111
-3.50653222076e-11 5.00041903962 1.57921021291e-08 0.0111111111111
-3.71522048084e-11 5.00041065882 1.67999535689e-08 0.0111111111111
-3.86280225132e-11 5.00040244565 1.76020115311e-08 0.0111111111111
-3.95639818175e-11 5.00039439673 1.82138422702e-08 0.0111111111111
-4.00261983727e-11 5.0003865088 1.86506444418e-08 0.0111111111111
-4.00758282964e-11 5.00037877862 1.89271908578e-08 0.0111111111111
-3.97692159288e-11 5.00037120305 1.90577787277e-08 0.0111111111111
-3.91580625686e-11 5.00036377899 1.90561878507e-08 0.0111111111111
-3.8289619322e-11 5.00035650341 1.89356462221e-08 0.0111111111111
-3.72068834313e-11 5.00034937334 1.87088025291e-08 0.0111111111111
-3.59488119204e-11 5.00034238588 1.83877050192e-08 0.0111111111111
-3.45505351996e-11 5.00033553816 1.79837862343e-08 0.0111111111111
-3.30435762167e-11 5.00032882739 1.75078531211e-08 0.0111111111111
-3.14560746208e-11 5.00032225085 1.6970082041e-08 0.0111111111111
-2.98130019258e-11 5.00031580583 1.63800182202e-08 0.0111111111111
-2.81363832413e-11 5.00030948971 1.57465792016e-08 0.00909090909091
-2.6445506746e-11 5.00030329992 1.5078061873e-08 0.00909090909091
-2.47571327096e-11 5.00029723392 1.43821526742e-08 0.00909090909091
-2.30856939713e-11 5.00029128924 1.36659405974e-08 0.00909090909091
-2.14434898794e-11 5.00028546346 1.29359326236e-08 0.00909090909091
-1.98408731476e-11 5.00027975419 1.21980712524e-08 0.00909090909091
-1.82864240616e-11 5.0002741591 1.14577538074e-08 0.00909090909091
-1.67871207037e-11 5.00026867592 1.07198532191e-08 0.00909090909091
-1.5348499566e-11 5.0002633024 9.98874000677e-09 0.00909090909091
-1.39748009964e-11 5.00025803636 9.26830520305e-09 0.00909090909091
-1.26691141679e-11 5.00025287563 8.56198398274e-09 0.00909090909091
-1.14335067915e-11 5.00024781812 7.87277977816e-09 0.00909090909091
-1.02691452686e-11 5.00024286175 7.20328868166e-09 0.00909090909091
-9.17641253918e-12 5.00023800452 6.5557239538e-09 0.00909090909091
-8.15500872618e-12 5.00023324443 5.93194047364e-09 0.00909090909091
-7.20404928237e-12 5.00022857954 5.33345898405e-09 0.00909090909091
-6.32215227012e-12 5.00022400795 4.76149000087e-09 0.00909090909091
-5.50751986284e-12 5.00021952779 4.21695727024e-09 0.00909090909091
-4.75800996672e-12 5.00021513723 3.70052067256e-09 0.00909090909091
-4.07120338621e-12 5.00021083449 3.21259848529e-09 0.00909090909091
-3.44446307905e-12 5.0002066178 2.75338892956e-09 0.00909090909091
-2.87498598621e-12 5.00020248544 2.32289093747e-09 0.00909090909091
-2.3598523902e-12 5.00019843573 1.92092408829e-09 0.00909090909091
-1.89606604072e-12 5.00019446702 1.54714767199e-09 0.00909090909091
-1.48059198823e-12 5.00019057768 1.2010788483e-09 0.00909090909091
-1.11038802326e-12 5.00018676613 8.82109878044e-10 0.00909090909091
-7.8243266409e-13 5.0001830308 5.89524412143e-10 0.00909090909091
-4.93749060023e-13 5.00017937019 3.22512830379e-10 0.00909090909091